^C:\USERS\KAIDEN\DOCUMENTS\VISUAL STUDIO 2013\PROJECTS\ROCKPAPERSCISSORS\ROCKPAPERSCISSORS\DEBUG\PLAYER.OBJ|C:\USERS\KAIDEN\DOCUMENTS\VISUAL STUDIO 2013\PROJECTS\ROCKPAPERSCISSORS\ROCKPAPERSCISSORS\DEBUG\ROCKPAPERSCISSORS.OBJ|C:\USERS\KAIDEN\DOCUMENTS\VISUAL STUDIO 2013\PROJECTS\ROCKPAPERSCISSORS\ROCKPAPERSCISSORS\DEBUG\STDAFX.OBJ
C:\USERS\KAIDEN\DOCUMENTS\VISUAL STUDIO 2013\PROJECTS\ROCKPAPERSCISSORS\DEBUG\ROCKPAPERSCISSORS.ILK
C:\USERS\KAIDEN\DOCUMENTS\VISUAL STUDIO 2013\PROJECTS\ROCKPAPERSCISSORS\DEBUG\ROCKPAPERSCISSORS.EXE
C:\USERS\KAIDEN\DOCUMENTS\VISUAL STUDIO 2013\PROJECTS\ROCKPAPERSCISSORS\DEBUG\ROCKPAPERSCISSORS.PDB
